,train_loss,val_loss
0,0.5971385649501507,0.5401864939548788
1,0.5233856194378282,0.5171916508039425
2,0.5044222974220532,0.5231200518098853
3,0.49132828072673795,0.521933689368065
4,0.4796417391216761,0.5157957455529821
5,0.46880135638009524,0.5177418225794932
6,0.4585194885290527,0.5164684826428072
7,0.44974419902433316,0.5222508322340148
8,0.44122005249996227,0.5218804161852516
9,0.4233005148555451,0.5228626512942328
10,0.4187877676507091,0.5232817129384087
11,0.41590514078992324,0.5216559461119314
12,0.41394672884500816,0.5262883097294853
13,0.4112205064903364,0.5239541024541571
14,0.41090134804223044,0.5244707184043886
15,0.4100704544254655,0.5250292945997305
16,0.4102873180876174,0.5255080503764777
17,0.41019036425648003,0.5251370029222349
