,train_loss,val_loss
0,0.12710545995404543,0.1070643389404319
1,0.10711173434012361,0.10887270707908017
2,0.10189226188848093,0.10177372697760852
3,0.0986901165511989,0.10137533025670913
4,0.09640104753182084,0.10054657955971262
5,0.09438563462178798,0.10038361461214677
6,0.09278685563031501,0.09930399551063852
7,0.09115441040424303,0.10196010204162619
8,0.08976135309444577,0.1002380457837679
9,0.08842200322382963,0.09886020604706293
10,0.08717160286135191,0.10211342730609035
11,0.08598713865295414,0.1017288446749507
12,0.08488249148832679,0.10088116674279293
13,0.08379477025254246,0.10034054363260593
14,0.08056688969210372,0.10084697570015165
