{
    "batch_size": 64,
    "seq_len": 15,
    "seq_stride": 2,
    "d_model": 300,
    "heads": 4,
    "hidden_units": 512,
    "n_encoding_layers": 3,
    "epochs": 25,
    "fine_tune": false,
    "optimizer": "adam",
    "target_size": 2,
    "skip_grams": 0,
    "hierarchical_softmax": 1,
    "embedding_window": 5,
    "min_count": 3,
    "embedding_iterations": 5,
    "scalling_coordinates": true,
    "choose_atention": "trained"
}